[
    {
        "nom": "Auto-école du sidobre",
        "adresse": {
            "numeroDeRue": null,
            "nomDeRue": "Place de la Mairie",
            "ville": "Roquecourbe",
            "codePostal": "81210"
        }
    },
    {
        "nom": "Carrefour",
        "adresse": {
            "numeroDeRue": null,
            "nomDeRue": "Rue du Théron",
            "ville": "Lacrouzette",
            "codePostal": "81210"
        }
    },
    {
        "nom": "Esthétique Discount",
        "adresse": {
            "numeroDeRue": 20,
            "nomDeRue": "Avenue Emilie de Villeneuve",
            "ville": "Castres",
            "codePostal": "81100"
        }
    },
    {
        "nom": "Gérard Sénégats et Fils",
        "adresse": {
            "numeroDeRue": 50,
            "nomDeRue": "Rue du Sidobre",
            "ville": "Castres",
            "codePostal": "81210"
        }
    },
    {
        "nom": "Godfrin Gravure",
        "adresse": {
            "numeroDeRue": null,
            "nomDeRue": "La Clayrié",
            "ville": "Lacrouzette",
            "codePostal": "81210"
        }
    },
    {
        "nom": "Loup Aimé",
        "adresse": {
            "numeroDeRue": 29,
            "nomDeRue": "Route du pic des fouches",
            "ville": "Lacrouzette",
            "codePostal": "81210"
        }
    },
    {
        "nom": "Marc Scierie du Sidobre",
        "adresse": {
            "numeroDeRue": 38,
            "nomDeRue": "Route de Roquecourbe",
            "ville": "Lacrouzette",
            "codePostal": "81210"
        }
    },
    {
        "nom": "Net Expérience",
        "adresse": {
            "numeroDeRue": null,
            "nomDeRue": null,
            "ville": null,
            "codePostal": null
        }
    },
    {
        "nom": "PC Intervention",
        "adresse": {
            "numeroDeRue": 86,
            "nomDeRue": "Avenue de Lavaur",
            "ville": "Castres",
            "codePostal": "81100"
        }
    },
    {
        "nom": "Quincaillerie de Lacrouzette",
        "adresse": {
            "numeroDeRue": 3,
            "nomDeRue": "Allée du Sol de la Dime",
            "ville": "Lacrouzette",
            "codePostal": "81210"
        }
    },
    {
        "nom": "SCTM Automobile",
        "adresse": {
            "numeroDeRue": null,
            "nomDeRue": "Route de Roquecourbe",
            "ville": "Lacrouzette",
            "codePostal": "81210"
        }
    }
]
